<svg xmlns="http://www.w3.org/2000/svg" viewBox="0 0 16 16">
  <defs>
    <style>
      .cls-1 {
        fill: #9e9e9e;
        stroke: #9e9e9e;
      }

      .cls-2 {
        fill: #fff;
        font-size: 10px;
        font-family: Prompt-Medium, Prompt;
        font-weight: 500;
      }

      .cls-3 {
        stroke: none;
      }

      .cls-4 {
        fill: none;
      }
    </style>
  </defs>
  <g id="Group_131" data-name="Group 131" transform="translate(-1150 -26)">
    <g id="Ellipse_281" data-name="Ellipse 281" class="cls-1" transform="translate(1150 26)">
      <circle class="cls-3" cx="8" cy="8" r="8"/>
      <circle class="cls-4" cx="8" cy="8" r="7.5"/>
    </g>
    <text id="_" data-name="?" class="cls-2" transform="translate(1158 38)"><tspan x="-2.6" y="0">?</tspan></text>
  </g>
</svg>
